<?xml version="1.0" encoding="iso-8859-1"?>
<!-- Generator: Adobe Illustrator 22.0.1, SVG Export Plug-In . SVG Version: 6.00 Build 0)  -->
<svg version="1.1" id="Layer_1" xmlns="http://www.w3.org/2000/svg" xmlns:xlink="http://www.w3.org/1999/xlink" x="0px" y="0px"
	 viewBox="0 0 35.402 57.402" style="enable-background:new 0 0 35.402 57.402;" xml:space="preserve">
<g id="mouse">
	<path style="fill:#FFFFFF;" d="M0.199,44.961c0,6.6,5.4,12,12,12h10c6.6,0,12-5.4,12-12v-21.5h-34V44.961z"/>
	<path style="fill:#FFFFFF;" d="M16.199,19.398c-1.913-0.299-3.385-1.943-3.385-3.938v-5c0-1.995,1.472-3.639,3.385-3.938V2.961h-4
		c-6.6,0-12,5.4-12,12v6.5h16V19.398z"/>
	<path style="fill:#FFFFFF;" d="M21.584,10.461v5c0,1.995-1.472,3.639-3.385,3.938v2.062h16v-6.5c0-6.6-5.4-12-12-12h-4v3.562
		C20.112,6.821,21.584,8.466,21.584,10.461z"/>
	<path style="fill:#FFFFFF;" d="M19.584,15.461v-5c0-0.887-0.584-1.632-1.385-1.893c-0.195-0.064-0.399-0.107-0.615-0.107h-0.77
		c-0.216,0-0.42,0.043-0.615,0.107c-0.801,0.261-1.385,1.006-1.385,1.893v5c0,0.887,0.584,1.632,1.385,1.893
		c0.195,0.064,0.399,0.107,0.615,0.107h0.77c0.216,0,0.42-0.043,0.615-0.107C18.999,17.093,19.584,16.348,19.584,15.461z"/>
</g>
</svg>
